Time,HeadYaw,HeadPitch,LShoulderPitch,LShoulderRoll,LElbowYaw,LElbowRoll,LWristYaw,LHand,LHipYawPitch,LHipRoll,LHipPitch,LKneePitch,LAnklePitch,LAnkleRoll,RHipRoll,RHipPitch,RKneePitch,RAnklePitch,RAnkleRoll,RShoulderPitch,RShoulderRoll,RElbowYaw,RElbowRoll,RWristYaw,RHand
0,38,38,38,38,38,38,38,38,33,28,28,28,28,27,28,28,29,28,27,38,38,38,38,38,38
4011,,,,,,,,,,,,29,,,,,,,,,,,,,
9022,,,,,,,,,,,29,,,,,29,,,,,,,,,
16042,,,,,,,,,,,,,,,,,30,,,,,,,,
26072,,,,,,,,,,,,30,,,,,,,,,,,,,
30081,,,,,,,,,,,,,29,,,,,,,,,,,,
32089,,,,,,,,,,,30,,,,,30,31,,,,,,,,
43118,,,,,,,,,,,,,,28,,,,,,,,,,,
47128,,,,,,,,,,,,31,,,,,,,,,,,,,
50137,,,,,,,,,,,,,,,,,32,,,,,,,,
53147,,,,,,,,,,,,,,,,,,29,,,,,,,
55151,,,,,,,,,,,,,,,,31,,,28,,39,,,,
57155,,,,,,,,,,,31,,,,,,,,,,,,,,
60165,,39,,,,,,,,,,,,,,,,,,,,,,,
67182,,,,,,,,,,,,32,,,,,,,,,,,,,
69187,,,,,,,,,,,,,,,,,33,,,,,,,,
71197,,,,39,,,,,,,,,,,,,,,,,,,,,
76210,,,,,,,,,,,,,30,,,,,,,,,,,,
80219,,,,,,,,,,,,,,,,32,,,,,,,,,
81221,,,,,,,,,,,32,,,,,,,,,,,,,,
82225,,,39,,,,,,,,,,,,,,,,,,,,,,
87238,,,,,,,,,,,,,,,,,34,,,,,,,,
89243,,,,,,,,,,,,33,,,,,,,,,,,,,
97263,,,,,,,,,,29,,,,,,,,,,,,,,,
99268,,,,,,,,,,,,,,,,,,30,,,,,,,
105287,,,,,,,,,,,33,,,,,33,35,,,,,,,,
110304,,,,,,,,,,,,34,,,,,,,,,,,,,
123338,,,,,,,,,,,,,,,,,36,,,,,,,,
124343,,,,,,,,,,,,,31,,,,,,,,,,,,
130356,,,,,,,,,,,,,,,,34,,,,,,,,,
131359,,,,,,,,,,,34,,,,,,,,,,,,,,
132364,,,,,,,,,,,,35,,,,,,,,,,,,,
138377,,,,,,,,,,,,,,,29,,,,,,,,,,
140382,,,,,,,,,,,,,,,,,37,,,,,,,,
148403,,,,,,,,,,,,,,,,,,,,,,,39,,
151415,,,,,,,,,,,,,,29,,,,31,,,,,,,
154423,,,,,,,,,,,,,,,,35,,,,,,,,,
155423,,,,,,,,,,,,36,,,,,,,,,,,,,
156426,,,,,,,,,,,35,,,,,,,,,,,,,,
159436,,,,,,,,,,,,,,,,,38,,,,,,,,
163449,,,,,,,,,,,,,,,,,,,,,40,,,,
165454,,,,,,,,,,,,,32,,,,,,,,,,,,
177487,,,,,,,,,,,,37,,,,,,,,,,,,,
178487,,,,,,,,,,,,,,,,,39,,,,,,,,
179490,,,,,,,,,,,,,,,,36,,,,,,,,,
180495,,,,,,,,,,,36,,,,,,,,,,,,,,
189518,,,,,,,,,,30,,,,,,,,,29,,,,,,
190526,,40,,,,,,,,,,,,,,,,,,,,,,,
197544,,,,,,,,,,,,,,,,,40,,,,,,,,
199548,,,,40,,,,,,,,,,,,,,,,,,,,,
200552,,,,,,,,,,,,38,,,,,,,,,,,,,
205565,,,,,,,,,,,,,,,,37,,32,,,,,,,
206569,,,,,,,,,,,37,,,,,,,,,,,,,,
209578,,,,,,,,,,,,,33,,,,,,,,,,,,
214593,,,,,,,,,,,,,,,,,41,,,,,,,,
223617,,,,,,,,,,,,39,,,,,,,,,,,,,
230635,,,,,,,,,,,,,,,,38,,,,,,,,,
232640,,,,,,,,,,,38,,,,,,,,,,,,,,
233644,,,,,,,,,,,,,,,,,42,,,,,,,,
243670,,,,,,,,,,,,,,,,,,,,39,,,,,
244671,,,,,,,,,,,,40,,,,,,,,,,,,,
249684,,,40,,,,,,,,,,,,,,,,,,,,,,
252693,,,,,,,,,,,,,,,,,43,,,,,,,,
253694,,,,,,,,,,,,,,,30,,,,,,,,,,
257707,,,,,,,,,,,,,,,,39,,,,,,,,,
258707,,,,,,,,,,,39,,,,,,,,,,,,,,
259712,,,,,,,,,,,,,34,,,,,,,,,,,,
260712,,,,,,,,,34,,,,,,,,,,,,,,,,
265725,,,,,,,,,,,,,,30,,,,,,,,,,,
267730,,,,,,,,,,,,41,,,,,,,,,,,,,
268735,,,,,,,,,,,,,,,,,,33,,,,,,,
271742,,,,,,,,,,,,,,,,,44,,,,,,,,
285778,,,,,,,,,,,40,,,,,40,,,,,,,,,
289789,,,,,,,,,,,,42,,,,,,,,,41,,,,
292797,,,,,,,,,,,,,,,,,45,,,,,,,,
293802,,,,,,,,,,31,,,,,,,,,,,,,,,
312852,,,,,,,,,,,,43,,,,41,46,,,,,,,,
313857,,,,,,,,,,,41,,,,,,,,,,,,,,
316862,,,,,,,,,,,,,35,,,,,,,,,,,,
321877,,,,,,,,,,,,,,,,,,34,,,,,,,
333913,,,,,,,,,,,,,,,,,47,,,,,,,,
335918,,,,,,,,,,,,44,,,,,,,,,,,,,
337926,,,,,,,,,,,,,,,,,,,30,,,,,,
340936,,,,,,,,,,,42,,,,,42,,,,,,,,,
353973,,,,41,,,,,,,,,,,,,,,,,,,,,
354973,,,,,,,,,,,,,,,,,48,,,,,,,,
358986,,,,,,,,,,,,45,,,,,,,,,,,,,
360994,,41,,,,,,,,,,,,,,,,,,,,,,,
368011,,,,,,,,,,,43,,,,,,,,,,,,,,
371023,,,,,,,,,,,,,,,,43,,,,,,,,,
372023,,,,,,,,,,,,,,,31,,,,,,,,,,
374031,,,,,,,,,,,,,36,,,,,,,,,,,,
378039,,,,,,,,,,,,,,,,,49,,,,,,,,
380047,,,,,,,,,,,,,,,,,,35,,,,,,,
381051,,,,,,,,,,,,46,,,,,,,,,,,,,
394087,,,,,,,,,,,,,,31,,,,,,,,,,,
397096,,,,,,,,,,,44,,,,,,,,,,,,,,
399100,,,,,,,,,,,,,,,,,50,,,,,,,,
400104,,,,,,,,,,32,,,,,,,,,,,,,,,
401111,,,,,,,,,,,,,,,,44,,,,,,,,,
405120,,,,,,,,,,,,47,,,,,,,,,,,,,
421168,,,,,,,,,,,,,,,,,51,,,,,,,,
424174,,,,,,,,,,,,,,,,,,,,,42,,,,
425177,,,,,,,,,,,45,,,,,,,,,,,,,,
428186,,,,,,,,,,,,48,,,,,,,,,,,,,
430190,,,,,,,,,,,,,,,,45,,,,,,,,,
431194,,,,,,,,,,,,,37,,,,,,,,,,,,
433199,,,,,,,,,,,,,,,,,,,,,,,40,,
440215,,,,,,,,,,,,,,,,,,36,,,,,,,
443223,,,,,,,,,,,,,,,,,52,,,,,,,,
452246,,,,,,,,,,,,49,,,,,,,,,,,,,
453250,,,,,,39,,,,,,,,,,,,,,,,,,,
455255,,,,,,,,,,,46,,,,,,,,,,,,,,
460266,,,,,,,,,,,,,,,,46,,,,,,,,,
464276,,,,,,,,,,,,,,,,,53,,,,,,,,
474305,,,,,,,,,,,,50,,,,,,,,,,,,,
484332,,,,,,,,,,,47,,,,,,,,,,,,,,
488342,,,,,,,,,,,,,,,,,54,,,,,,,,
491354,,,41,,,,,,,,,,,,,47,,,,,,,,,
494359,,,,,,,,,,,,,38,,,,,,,,,,,,
498371,,,,,,,,,,,,,,,32,,,,,,,,,,
499372,,,,,,,,,,,,51,,,,,,,,,,,,,
504389,,,,,,,,,,,,,,,,,,37,,,,,,,
506394,,,,,,,,,,,,,,,,,,,31,,,,,,
509400,39,,,,,,,,,,,,,,,,,,,,,,,,
511410,,,,,,,,,,,,,,,,,55,,,,,,,,
515418,,,,,,,,,,,48,,,,,,,,,,,,,,
517423,,,,,,,,,,33,,,,,,,,,,,,,,,
523440,,,,,,,,,,,,,,,,48,,,,,,,,,
524444,,,,,,,,,,,,52,,,,,,,,,,,,,
533467,,,,,,,,,,,,,,32,,,,,,,,,,,
535474,,,,,,,,,,,,,,,,,56,,,,,,,,
545503,,,,,,,,,,,49,,,,,,,,,,,,,,
547507,,,,,,,,,,,,53,,,,,,,,,,,,,
555529,,,,,,,,,,,,,,,,49,,,,,,,,,
556530,,42,,,,,,,,,,,,,,,,,,,,,,,
560540,,,,,,,,,,,,,,,,,57,,,,,,,,
565554,,,,,,,,,,,,,39,,,,,,,,,,,,
566559,,,,,,,,,,,,,,,,,,38,,,,,,,
570567,,,,,,,,,,,,54,,,,,,,,,,,,,
574581,,,,42,,,,,,,,,,,,,,,,,,,,,
575586,,,,,,,,,,,50,,,,,,,,,,,,,,
586614,,,,,,,,,,,,,,,,,58,,,,,,,,
588617,,,,,,,,,,,,,,,,50,,,,,,,,,
594633,,,,,,,,,,,,,,,,,,,,,43,,,,
595638,,,,,,,,,,,,55,,,,,,,,,,,,,
606667,,,,,,,,,,,51,,,,,,,,,,,,,,
613687,,,,,,,,,,,,,,,,,59,,,,,,,,
619700,,,,,,,,,,,,56,,,,,,,,,,,,,
621705,,,,,,,,,,,,,,,,51,,,,,,,,,
624713,,,,,,,,,,,,,,,33,,,,,,,,,,
629726,,,,,,,,,,,,,,,,,,39,,,,,,,
636751,,,,,,,,,,,,,,,,,60,,,,,,,,
638756,,,,,,,,,,,52,,,,,,,,,,,,,,
643769,,,,,,,,,,,,,40,,,,,,,,,,,,
646774,,,,,,,,,,,,57,,,,,,,,,,,,,
655799,,,,,,,,,,34,,,,,,52,,,,,,,,,
661815,,,,,,,,,,,,,,,,,61,,,,,,,,
669836,,,,,,,,,,,53,,,,,,,,,,,,,,
670841,,,,,,,,,35,,,58,,,,,,,,,,,,,
687888,,,,,,,,,,,,,,,,,62,,,,,,,,
689896,,,,,,,,,,,,,,,,53,,,,,,,,,
691901,,,,,,,,,,,,,,33,,,,,,,,,,,
694911,,,,,,,,,,,,,,,,,,,32,,,,,,
697916,,,,,,,,,,,,59,,,,,,,,,,,,,
703934,,,,,,,,,,,54,,,,,,,,,,,,,,
704939,,,,,,,,,,,,,,,,,,40,,,,,,,
712963,,,,,,,,,,,,,,,,,63,,,,,,,,
721989,,,,,,,,,,,,,41,,,,,,,,,,,,
723994,,,,,,,,,,,,60,,,,54,,,,,,,,,
738028,,,,,,,,,,,55,,,,,,,,,,,,,,
739032,,,,,,,,,,,,,,,,,64,,,,,,,,
752070,,,,,,,,,,,,61,,,,,,,,,,,,,
758087,,,,,,,,,,,,,,,34,,,,,,,,,,
760092,,,,,,,,,,,,,,,,55,,,,,,,,,
764104,,,,,,,,,,,,,,,,,65,,,,,,,,
770117,,43,,,,,,,,,,,,,,,,,,,,,,,
771120,,,,,,,,,,,56,,,,,,,,,,,,,,
778142,,,,,,,,,,,,62,,,,,,,,,,,,,
782153,,,,,,,,,,,,,,,,,,41,,,,,,,
790176,,,,,,,,,,,,,,,,,66,,,,,,,,
791176,,,,,,,,,,,,,,,,,,,,,44,,,,
794187,,,,,,,,,,35,,,,,,,,,,,,,,,
796192,,,,,,,,,,,,,,,,56,,,,,,,,,
803211,,,,,,,,,,,,,42,,,,,,,,,,,,
806220,,,,,,,,,,,57,,,,,,,,,,,,,,
807221,,,,,,,,,,,,63,,,,,,,,,,,,,
818252,,,,,,,,,,,,,,,,,67,,,,,,,,
834297,,,,,,,,,,,,,,,,57,,,,,,,,,
835299,,,,,,,,,,,,64,,,,,,,,,,,,,
841315,,,,,,,,,,,58,,,,,,,,,,,,,,
845329,,,,,,,,,,,,,,,,,68,,,,,,,,
861373,,,,,,,,,,,,65,,,,,,,,,,,,,
864380,,,,,,,,,,,,,,,,,,42,,,,,,,
868390,,,,,,,,,,,,,,34,,,,,,,,,,,
872403,,,,,,,,,,,,,,,,58,,,,,,,,,
874408,,,,,,,,,,,,,,,,,69,,,,,,,,
876413,,,,,,,,,,,59,,,,,,,,,,,,,,
879421,,,,43,,,,,,,,,,,,,,,,,,,,,
884439,,,42,,,,,,,,,,,,,,,,,,,,,,
888448,,,,,,,,,,,,66,43,,,,,,,,,,,,
894469,,,,,,,,,,,,,,,35,,,,,,,,,,
906499,,,,,,,,,,,,,,,,,70,,,,,,,,
912516,,,,,,,,,,,60,,,,,59,,,,,,,,,
914524,,,,,,,,,,,,,,,,,,,33,,,,,,
916529,,,,,,,,,,,,67,,,,,,,,,,,,,
934578,,,,,,,,,,,,,,,,,71,,,,,,,,
944605,,,,,,,,,,,,68,,,,,,,,,,,,,
945608,,,,,,,,,,,,,,,,,,43,,,,,,,
948625,,,,,,,,,,,61,,,,,,,,,,,,,,
951626,,,,,,,,,,,,,,,,60,,,,,,,,,
952629,,,,,,,,,,36,,,,,,,,,,,,,,,
